<svg id="Слой_1" data-name="Слой 1" xmlns="http://www.w3.org/2000/svg" viewBox="0 0 99.03 64.38">
  <defs>
    <style>
      .cls-1 {
        fill: none;
        stroke: #64aecc;
        stroke-miterlimit: 10;
        stroke-width: 1.83px;
      }
    </style>
  </defs>
  <title>Описание Bitcoin</title>
  <g>
    <g>
      <path class="cls-1" d="M2212.75,1653.89c0,12.6-9,22.82-16.62,22.82-6.48,0-16.62-10.22-16.62-22.82s7.44-18.88,16.62-18.88S2212.75,1641.29,2212.75,1653.89Z" transform="translate(-2146.61 -1634.1)"/>
      <path class="cls-1" d="M2205.68,1675.7a52.91,52.91,0,0,1-9.56,9.75,52.91,52.91,0,0,1-9.56-9.75c-10.64,5.14-18.23,16.88-18.23,16.88a79.92,79.92,0,0,0,55.59,0S2216.32,1680.84,2205.68,1675.7Z" transform="translate(-2146.61 -1634.1)"/>
    </g>
    <g>
      <path class="cls-1" d="M2237.48,1658.7c0,7.72-5.52,14-10.18,14-4,0-10.18-6.26-10.18-14s4.56-11.56,10.18-11.56S2237.48,1651,2237.48,1658.7Z" transform="translate(-2146.61 -1634.1)"/>
      <path class="cls-1" d="M2214.68,1677.06a20.92,20.92,0,0,1,6.13-4.48,19.67,19.67,0,0,0,6.49,5.44,19.31,19.31,0,0,0,6.71-5.44c6.52,3.15,10.32,9.81,10.32,9.81a50.8,50.8,0,0,1-17,3.06,46.9,46.9,0,0,1-5.32-.31S2217.71,1680,2214.68,1677.06Z" transform="translate(-2146.61 -1634.1)"/>
    </g>
    <g>
      <path class="cls-1" d="M2154.76,1658.7c0,7.72,5.52,14,10.18,14,4,0,10.18-6.26,10.18-14s-4.56-11.56-10.18-11.56S2154.76,1651,2154.76,1658.7Z" transform="translate(-2146.61 -1634.1)"/>
      <path class="cls-1" d="M2177.56,1677.06a20.75,20.75,0,0,0-6.08-4.51,19.93,19.93,0,0,1-6.54,5.47,20.38,20.38,0,0,1-6.75-5.55c-6.52,3.15-10.28,9.92-10.28,9.92a50.8,50.8,0,0,0,17,3.06,46.9,46.9,0,0,0,5.32-.31S2174.54,1680,2177.56,1677.06Z" transform="translate(-2146.61 -1634.1)"/>
    </g>
  </g>
</svg>
