<?xml version="1.0" encoding="utf-8"?>
<!-- Generator: Adobe Illustrator 18.0.0, SVG Export Plug-In . SVG Version: 6.00 Build 0)  -->
<!DOCTYPE svg PUBLIC "-//W3C//DTD SVG 1.1//EN" "http://www.w3.org/Graphics/SVG/1.1/DTD/svg11.dtd">
<svg version="1.1" id="Слой_1" xmlns="http://www.w3.org/2000/svg" xmlns:xlink="http://www.w3.org/1999/xlink" x="0px" y="0px"
	 viewBox="0 0 95.6 167.5" enable-background="new 0 0 95.6 167.5" xml:space="preserve">
<g opacity="0.43">
	<g>
		<polygon fill="#00A8FF" points="0,92.1 47.2,66.6 95.6,92.1 47.2,118.4 		"/>
		<polygon fill="#00E2FF" points="47.2,0.8 47.2,111.8 95.6,84 		"/>
		<polygon fill="#00C6FF" points="0,84.7 47.2,111.8 47.2,0.8 		"/>
		<polygon fill="#00E2FF" points="0,92.1 47.2,118.4 47.2,167.5 		"/>
		<polygon fill="#00C6FF" points="47.2,118.4 95.6,92.1 47.2,167.5 		"/>
	</g>
	<path fill="#00FCFF" d="M47.2,167.5v-49.1C47.2,118.4,48.8,131.9,47.2,167.5z"/>
	<path fill="#00FCFF" d="M95.6,92.1l-48.4,26.3C47.2,118.4,66.7,110.2,95.6,92.1z"/>
	<path fill="#00FCFF" d="M0,92.1l47.2,26.3C47.2,118.4,23.9,106.9,0,92.1z"/>
	<path fill="#00FCFF" d="M47.2,0.8v111C47.2,111.8,48.5,28.6,47.2,0.8z"/>
</g>
</svg>
