<?xml version="1.0" encoding="UTF-8"?>
<!DOCTYPE svg PUBLIC "-//W3C//DTD SVG 1.1//EN" "http://www.w3.org/Graphics/SVG/1.1/DTD/svg11.dtd">
<!-- Creator: CorelDRAW X8 -->
<svg xmlns="http://www.w3.org/2000/svg" xml:space="preserve" width="5.4186mm" height="5.4186mm" version="1.1" style="shape-rendering:geometricPrecision; text-rendering:geometricPrecision; image-rendering:optimizeQuality; fill-rule:evenodd; clip-rule:evenodd"
viewBox="0 0 542 542"
 xmlns:xlink="http://www.w3.org/1999/xlink">
 <defs>
  <style type="text/css">
   <![CDATA[
    .fil1 {fill:#3FD794}
    .fil0 {fill:white}
    .fil2 {fill:#3FD794;fill-rule:nonzero}
   ]]>
  </style>
 </defs>
 <g id="Слой_x0020_1">
  <metadata id="CorelCorpID_0Corel-Layer"/>
  <path class="fil0" d="M166 229l58 0 10 -36 -47 0c-12,0 -21,-9 -21,-20l0 -10c0,-12 9,-21 21,-21l61 0c21,-60 75,-167 195,-137 22,6 35,23 35,43 0,25 -18,44 -40,44 -22,0 -40,-19 -40,-44 0,-2 0,-3 0,-5l0 0c-23,13 -41,66 -50,99l32 0c12,0 21,9 21,21l0 10c0,11 -9,20 -21,20l-46 0 -11 36 36 0c12,0 21,10 21,21l0 10c0,11 -9,21 -21,21l-48 0c-53,274 -227,306 -246,215 -5,-21 19,-40 44,-40 21,0 38,14 42,32 3,-5 6,-12 9,-22 15,-44 42,-149 51,-185l-45 0c-12,0 -21,-10 -21,-21l0 -10c0,-11 9,-21 21,-21z"/>
  <g id="_944008816">
   <polygon class="fil1" points="147,413 177,332 193,321 "/>
   <path class="fil1" d="M291 277c0,0 13,-4 18,-5 5,-1 8,-2 8,-2 0,0 46,102 102,119 -31,5 -89,-28 -128,-112z"/>
   <path class="fil1" d="M145 349c0,0 86,-101 269,-102 -178,23 -269,102 -269,102z"/>
   <path class="fil1" d="M101 374c0,0 94,-159 353,-144 -201,16 -267,62 -353,144z"/>
   <path class="fil1" d="M124 327c0,0 101,-123 287,-111 -173,9 -287,111 -287,111z"/>
   <path class="fil1" d="M206 258l25 -13 27 -54 12 38c0,0 14,-4 20,-5 6,-2 9,-3 9,-3 0,0 -29,-89 -29,-133 -15,36 -64,170 -64,170z"/>
   <path class="fil1" d="M271 56c119,0 215,96 215,215 0,119 -96,215 -215,215 -119,0 -215,-96 -215,-215 0,-119 96,-215 215,-215zm0 10c113,0 205,92 205,205 0,113 -92,205 -205,205 -113,0 -205,-92 -205,-205 0,-113 92,-205 205,-205z"/>
   <path class="fil1" d="M271 0c150,0 271,121 271,271 0,150 -121,271 -271,271 -150,0 -271,-121 -271,-271 0,-150 121,-271 271,-271zm0 12c143,0 259,116 259,259 0,143 -116,259 -259,259 -143,0 -259,-116 -259,-259 0,-143 116,-259 259,-259z"/>
   <path class="fil2" d="M263 495l-18 -1 -2 26 18 2 2 -27zm-7 21l-8 -1 2 -16 8 1 -2 16zm-21 -2l-5 -1 3 -16 5 1 1 -5 -16 -3 -1 5 6 1 -4 21 11 2 0 -5zm-21 -4l-5 -2 4 -15 5 1 2 -5 -16 -4 -1 5 5 2 -6 20 10 3 2 -5zm-14 -26l-17 -7 -10 25 17 7 10 -25zm-13 18l-7 -3 6 -15 7 3 -6 15zm-19 -8l-5 -2 8 -15 4 3 3 -5 -15 -7 -2 4 5 3 -10 19 10 5 2 -5zm-20 -10l-4 -3 8 -13 5 2 3 -4 -14 -9 -3 5 5 3 -12 18 9 5 3 -4zm-17 -12l-5 -3 10 -13 4 3 3 -4 -13 -9 -3 4 4 3 -12 18 8 6 4 -5zm-4 -29l-14 -13 -18 19 13 13 19 -19zm-19 12l-6 -6 11 -11 6 5 -11 12zm-15 -14l-3 -5 12 -10 3 4 4 -4 -10 -12 -4 4 3 4 -16 14 7 8 4 -3zm3 -30l-11 -15 -22 16 11 15 22 -16zm-21 9l-4 -7 13 -9 4 6 -13 10zm-12 -18l-2 -4 14 -8 2 4 5 -2 -8 -14 -5 3 3 4 -19 11 6 9 4 -3zm-11 -19l-2 -5 15 -6 2 5 5 -3 -7 -14 -5 2 2 5 -19 9 4 9 5 -2zm-8 -19l-2 -5 15 -6 2 5 5 -2 -6 -15 -5 2 2 5 -20 8 4 10 5 -2zm13 -27l-5 -18 -26 7 5 18 26 -7zm-22 1l-3 -8 16 -4 2 7 -15 5zm-5 -20l-1 -6 16 -3 1 6 5 -1 -3 -16 -5 1 1 5 -21 4 2 11 5 -1zm-3 -22l-1 -6 16 -1 1 5 5 0 -1 -16 -6 0 1 6 -22 1 1 11 6 0zm20 -22l0 -19 -27 -1 0 19 27 1zm-22 -6l1 -8 16 0 -1 8 -16 0zm1 -21l1 -5 16 2 -1 5 6 1 2 -16 -6 -1 0 5 -22 -2 -1 10 5 1zm4 -22l1 -5 15 3 -1 6 5 1 4 -16 -5 -1 -1 5 -21 -5 -3 11 6 1zm5 -22l1 -5 15 5 -1 6 5 1 5 -15 -5 -2 -2 5 -20 -6 -4 10 6 1zm26 -12l8 -17 -25 -11 -7 17 24 11zm-17 -14l3 -7 15 7 -4 7 -14 -7zm8 -19l3 -4 14 8 -3 4 5 3 8 -14 -5 -2 -2 4 -19 -11 -5 10 4 2zm11 -19l3 -4 14 9 -4 4 5 4 9 -14 -4 -3 -3 5 -18 -13 -6 9 4 3zm29 -4l12 -14 -20 -18 -12 15 20 17zm-12 -18l5 -6 12 10 -5 6 -12 -10zm13 -16l4 -4 11 12 -4 4 4 4 12 -11 -4 -4 -4 3 -15 -15 -8 7 4 4zm16 -14l4 -4 10 12 -4 4 4 4 12 -11 -4 -4 -4 4 -14 -16 -8 7 4 4zm17 -14l4 -3 9 13 -4 3 3 4 13 -9 -3 -4 -4 3 -13 -18 -8 7 3 4zm29 6l16 -9 -13 -23 -17 9 14 23zm-6 -21l7 -4 8 14 -7 4 -8 -14zm18 -10l5 -2 7 15 -5 2 2 5 15 -7 -2 -5 -5 3 -9 -20 -10 4 2 5zm21 -8l5 -2 5 15 -5 2 2 5 15 -5 -2 -5 -5 2 -7 -21 -10 4 2 5zm26 14l18 -4 -6 -26 -18 4 6 26zm0 -22l8 -2 4 16 -8 2 -4 -16zm21 -4l5 -1 2 16 -5 1 0 5 16 -2 0 -5 -6 1 -2 -22 -11 2 1 5zm22 -2l5 0 1 16 -6 0 0 5 17 0 -1 -6 -5 0 -1 -21 -10 0 0 6zm22 -1l5 1 -1 16 -5 -1 0 6 16 1 0 -5 -5 -1 1 -21 -10 -1 -1 5zm19 23l18 3 5 -26 -19 -3 -4 26zm9 -20l8 1 -3 16 -8 -1 3 -16zm20 4l5 1 -4 16 -5 -2 -2 5 16 5 1 -6 -5 -1 6 -21 -10 -3 -2 6zm20 6l6 1 -6 16 -5 -2 -1 5 15 5 2 -5 -6 -2 7 -20 -10 -3 -2 5zm12 27l18 8 11 -25 -18 -7 -11 24zm14 -17l7 3 -6 15 -7 -4 6 -14zm20 9l4 3 -8 14 -5 -3 -3 4 14 9 3 -4 -5 -3 12 -18 -9 -6 -3 4zm17 12l5 3 -10 13 -4 -3 -3 4 13 10 3 -5 -4 -3 12 -17 -8 -6 -4 4zm18 13l4 4 -10 12 -4 -4 -4 4 12 11 4 -4 -4 -4 14 -16 -8 -7 -4 4zm1 30l13 14 19 -19 -13 -14 -19 19zm19 -11l6 6 -12 11 -5 -6 11 -11zm14 16l3 4 -12 10 -4 -4 -4 3 10 12 4 -3 -3 -4 17 -13 -7 -9 -4 4zm13 17l3 5 -14 9 -2 -5 -5 3 9 14 4 -3 -3 -5 18 -11 -5 -9 -5 2zm-7 29l8 17 24 -12 -9 -17 -23 12zm21 -5l4 7 -15 8 -3 -8 14 -7zm9 19l2 5 -15 6 -2 -5 -5 2 6 15 5 -2 -2 -5 20 -8 -4 -10 -5 2zm7 21l2 5 -16 4 -1 -5 -5 2 4 15 5 -1 -1 -5 21 -6 -3 -11 -6 2zm6 21l1 6 -16 2 -1 -5 -5 1 3 16 5 -1 -1 -5 21 -4 -2 -11 -5 1zm-17 24l1 19 27 -2 -2 -19 -26 2zm21 4l1 8 -16 1 -1 -8 16 -1zm2 21l-1 5 -16 -1 1 -5 -6 0 0 16 5 0 0 -5 22 0 0 -10 -5 0zm-1 22l-1 5 -16 -2 1 -5 -5 -1 -2 16 5 1 1 -6 21 3 1 -11 -5 0zm-23 17l-5 18 26 6 5 -18 -26 -6zm19 10l-2 8 -15 -4 2 -7 15 3zm-4 20l-2 6 -15 -6 1 -5 -5 -1 -5 15 5 2 2 -6 20 7 4 -10 -5 -2zm-7 21l-2 5 -15 -6 2 -5 -5 -2 -6 15 5 2 2 -5 20 7 4 -9 -5 -2zm-9 20l-2 5 -15 -8 3 -4 -5 -3 -7 14 4 3 3 -5 19 10 5 -10 -5 -2zm-29 8l-10 16 23 14 10 -16 -23 -14zm16 16l-5 7 -13 -9 4 -7 14 9zm-12 17l-4 4 -12 -10 3 -4 -4 -3 -10 12 4 4 4 -4 16 13 7 -9 -4 -3zm-14 17l-4 4 -12 -11 4 -4 -4 -4 -11 12 4 4 4 -4 15 15 8 -8 -4 -4zm-30 0l-14 12 17 20 15 -12 -18 -20zm10 19l-6 6 -11 -13 7 -5 10 12zm-16 13l-4 3 -10 -13 5 -3 -3 -4 -14 9 4 5 4 -3 12 17 9 -6 -3 -5zm-18 13l-5 2 -8 -13 5 -3 -3 -5 -14 8 3 5 4 -3 11 19 9 -6 -2 -4zm-20 10l-5 3 -6 -15 5 -2 -3 -5 -14 7 2 4 5 -2 9 20 9 -5 -2 -5zm-27 -11l-18 6 9 26 18 -7 -9 -25zm2 22l-8 3 -5 -16 8 -2 5 15zm-20 6l-5 2 -4 -16 5 -1 -1 -5 -16 3 2 5 5 -1 5 21 10 -2 -1 -6zm-22 5l-5 1 -2 -16 5 -1 -1 -5 -16 2 1 5 5 0 3 21 11 -1 -1 -6zm-23 -18l-18 0 0 27 19 -1 -1 -26zm-4 21l-8 0 -1 -16 8 0 1 16z"/>
  </g>
 </g>
</svg>
