<?xml version="1.0" encoding="UTF-8"?>
<!DOCTYPE svg PUBLIC "-//W3C//DTD SVG 1.1//EN" "http://www.w3.org/Graphics/SVG/1.1/DTD/svg11.dtd">
<!-- Creator: CorelDRAW X8 -->
<svg xmlns="http://www.w3.org/2000/svg" xml:space="preserve" width="5.4187mm" height="5.4188mm" version="1.1" style="shape-rendering:geometricPrecision; text-rendering:geometricPrecision; image-rendering:optimizeQuality; fill-rule:evenodd; clip-rule:evenodd"
viewBox="0 0 542 542"
 xmlns:xlink="http://www.w3.org/1999/xlink">
 <defs>
  <style type="text/css">
   <![CDATA[
    .fil0 {fill:none}
    .fil1 {fill:#0E6941}
    .fil2 {fill:#199961}
    .fil3 {fill:#3FD794}
   ]]>
  </style>
 </defs>
 <g id="Слой_x0020_1">
  <metadata id="CorelCorpID_0Corel-Layer"/>
  <rect class="fil0" width="542" height="542"/>
  <g id="_1151668416">
   <path class="fil1" d="M328 393c-53,101 -115,155 -169,136 -18,-7 -32,-22 -42,-43 136,-24 139,-48 211,-93z"/>
   <path class="fil1" d="M181 144c51,-94 120,-150 172,-132 17,7 31,21 41,40 -59,12 -126,35 -213,92z"/>
   <path class="fil2" d="M303 398c-109,76 -222,98 -261,48 -16,-20 -18,-48 -9,-80 52,30 138,45 233,36 13,-1 25,-2 37,-4z"/>
   <path class="fil2" d="M220 137c109,-76 221,-99 261,-49 16,20 18,48 9,80 -52,-30 -138,-45 -234,-36 -12,1 -24,3 -36,5z"/>
   <path class="fil3" d="M259 142c150,-14 276,31 283,100 6,69 -110,137 -259,151 -150,14 -276,-31 -283,-100 -6,-69 110,-137 259,-151zm33 146c0,0 -9,32 32,28 41,-4 57,-13 57,-13l-7 37c0,0 -99,31 -119,-19 -22,21 -48,28 -67,28 -33,0 -52,-17 -52,-47 0,-52 62,-56 117,-55 0,0 9,-32 -32,-28 -41,4 -56,13 -56,13l6 -37c0,0 99,-31 119,19 22,-21 48,-28 67,-28 33,0 52,17 52,47 0,52 -62,56 -117,55zm-84 28c-12,0 -21,-8 -21,-19 0,-24 44,-22 60,-20 -4,29 -27,39 -39,39zm129 -97c12,0 21,8 21,19 0,24 -44,22 -60,20 4,-29 27,-39 39,-39z"/>
  </g>
 </g>
</svg>
