<?xml version="1.0" encoding="UTF-8"?>
<!DOCTYPE svg PUBLIC "-//W3C//DTD SVG 1.1//EN" "http://www.w3.org/Graphics/SVG/1.1/DTD/svg11.dtd">
<!-- Creator: CorelDRAW X8 -->
<svg xmlns="http://www.w3.org/2000/svg" xml:space="preserve" width="5.2mm" height="5.4187mm" version="1.1" style="shape-rendering:geometricPrecision; text-rendering:geometricPrecision; image-rendering:optimizeQuality; fill-rule:evenodd; clip-rule:evenodd"
viewBox="0 0 20 20"
 xmlns:xlink="http://www.w3.org/1999/xlink">
 <defs>
  <style type="text/css">
   <![CDATA[
    .fil0 {fill:#199961}
   ]]>
  </style>
 </defs>
 <g id="Слой_x0020_1">
  <metadata id="CorelCorpID_0Corel-Layer"/>
  <g id="_1021851600">
   <path class="fil0" d="M3 9c0,0 -1,0 -1,0 0,1 0,1 0,1 0,0 0,0 0,0 -1,-1 -1,-1 -1,0 0,0 -1,0 -1,0 0,0 0,0 0,1 1,0 0,0 0,0 0,0 0,1 1,1 0,0 1,0 1,0 0,0 0,1 0,1 0,1 0,1 0,1 0,0 1,1 1,1 1,1 1,1 1,1 0,1 1,1 1,2 0,0 1,0 1,0 0,0 0,0 0,0 0,0 0,1 0,1 0,0 1,0 1,0 0,0 1,0 0,0 0,-1 0,-1 0,-1 0,0 -1,-2 -1,-2 0,0 0,0 0,0 -1,0 -2,0 -1,0 1,0 1,0 2,0 0,0 1,0 1,0 0,0 0,0 0,0 1,1 1,1 1,1 0,0 0,0 0,0 1,0 1,0 1,0l0 1c0,0 0,0 0,0 0,-1 0,-1 0,0 1,0 1,1 1,1l1 0c0,0 0,1 0,0 0,-1 -1,-1 -1,-1 0,-1 0,-1 0,-1l-1 -1 0 1c0,0 0,0 1,0 0,0 0,0 0,0 0,1 0,2 0,2 0,0 0,0 0,0 1,1 1,1 1,0 0,0 0,-1 0,-1 0,0 -1,-1 -1,-1 0,0 0,-1 0,-1 -1,0 -1,0 -1,0l0 0c0,0 -1,0 -1,-1 0,0 1,-1 1,-1 0,0 0,1 1,1 0,0 2,-1 2,-2 1,-1 1,-1 1,-1 1,0 2,0 2,-1 0,0 0,-3 0,-3 0,0 -1,1 -3,0 -1,0 -2,-1 -3,-3 -1,-2 -2,-3 -2,-3 0,0 -2,-2 -4,-2 -2,0 -2,1 -2,1 0,0 -1,1 -1,2 -1,1 -1,2 -1,2 0,0 1,2 1,2 1,1 2,2 2,2zm7 5c0,0 1,-4 1,-4 0,-1 0,-1 0,-1l2 3 -2 -3c0,0 0,-1 0,-2 -1,0 -1,0 -1,0 0,0 2,1 3,2 2,0 3,0 3,0 0,0 0,2 -1,2 -2,1 -2,2 -2,2 0,0 -1,2 -3,1zm-4 3l0 0c0,0 0,-1 0,0 0,0 1,1 1,1l0 0c0,0 0,1 0,0 -1,0 -1,-1 -1,-1zm-5 -6c0,0 0,-1 0,-1 0,0 1,0 1,0l0 0c0,0 0,1 0,1 0,0 0,0 0,0 0,0 -1,1 -1,1 0,-1 0,-1 0,-1 0,0 0,1 0,0 -1,0 0,0 0,0 0,0 -1,-1 -1,-1 1,0 1,0 1,1 0,0 0,0 0,0zm3 -9c1,0 2,0 2,1 0,1 -1,2 -2,2 0,0 -1,0 -1,0 0,0 0,0 0,0 0,1 0,1 -1,1 0,0 -1,0 -1,-1 0,-1 1,-1 1,-1 0,0 0,0 1,0 -1,0 -1,0 -1,-1 0,-1 1,-1 2,-1zm0 5c0,0 0,0 1,0 0,0 0,-1 0,-1 0,0 0,1 0,1 0,0 0,0 0,0 0,1 0,1 0,1 0,0 -1,0 -1,-1 0,0 0,0 0,0 0,0 0,0 0,0zm4 1c0,0 0,0 0,0 0,0 0,1 0,1l0 0 0 0c0,0 0,0 -1,0 0,0 0,1 0,1 0,0 1,0 0,0 0,0 0,0 0,0 0,0 -1,0 -1,0 0,0 0,1 0,1 0,0 0,0 0,0 0,0 0,1 0,1 0,0 0,0 0,0 0,0 0,0 0,0 0,0 1,1 1,0 0,0 0,0 0,0 0,0 1,-1 1,-1 0,0 0,0 0,0 0,0 1,-1 1,-1l0 0c0,0 1,-1 0,-2 0,-1 0,-1 0,-1 0,0 0,1 0,1 0,1 0,1 0,1l-1 1 0 -1c0,0 1,-1 0,-1zm-2 4l0 -1c0,0 0,0 0,1 0,0 0,0 0,0zm2 -2l0 -1 0 1 0 0 -1 0 -1 0c0,0 0,0 0,1 0,0 0,0 0,0l0 0c0,0 0,1 1,1 0,0 0,0 0,0l0 -1 0 0 1 0c0,0 0,-1 0,-1 0,0 0,0 0,0z"/>
   <polygon class="fil0" points="16,12 16,12 19,16 "/>
   <polygon class="fil0" points="13,15 15,17 13,15 "/>
   <polygon class="fil0" points="17,17 16,17 20,20 "/>
   <polygon class="fil0" points="15,20 13,18 13,18 "/>
   <polygon class="fil0" points="9,19 10,20 9,19 "/>
   <circle class="fil0" cx="3" cy="3" r="1"/>
   <circle class="fil0" cx="2" cy="5" r="1"/>
  </g>
 </g>
</svg>
