<?xml version="1.0" encoding="UTF-8"?>
<!DOCTYPE svg PUBLIC "-//W3C//DTD SVG 1.1//EN" "http://www.w3.org/Graphics/SVG/1.1/DTD/svg11.dtd">
<!-- Creator: CorelDRAW X8 -->
<svg xmlns="http://www.w3.org/2000/svg" xml:space="preserve" width="5.4187mm" height="5.4186mm" version="1.1" style="shape-rendering:geometricPrecision; text-rendering:geometricPrecision; image-rendering:optimizeQuality; fill-rule:evenodd; clip-rule:evenodd"
viewBox="0 0 542 542"
 xmlns:xlink="http://www.w3.org/1999/xlink">
 <defs>
  <style type="text/css">
   <![CDATA[
    .fil1 {fill:#3FD794}
    .fil0 {fill:white}
   ]]>
  </style>
 </defs>
 <g id="Слой_x0020_1">
  <metadata id="CorelCorpID_0Corel-Layer"/>
  <path class="fil0" d="M166 229l58 0 10 -36 -47 0c-12,0 -21,-9 -21,-20l0 -10c0,-12 9,-21 21,-21l61 0c21,-60 75,-167 195,-137 22,6 35,23 35,43 0,25 -18,44 -40,44 -22,0 -40,-19 -40,-44 0,-2 0,-3 0,-5l0 0c-23,13 -41,66 -50,99l32 0c12,0 21,9 21,21l0 10c0,11 -9,20 -21,20l-46 0 -11 36 36 0c12,0 21,10 21,21l0 10c0,11 -9,21 -21,21l-48 0c-53,274 -227,306 -246,215 -5,-21 19,-40 44,-40 21,0 38,14 42,32 3,-5 6,-12 9,-22 15,-44 42,-149 51,-185l-45 0c-12,0 -21,-10 -21,-21l0 -10c0,-11 9,-21 21,-21z"/>
  <g id="_878286464">
   <path class="fil1" d="M132 426l-132 -217c0,0 169,124 269,-93 7,10 12,20 12,20 0,0 -63,168 -229,119 56,88 100,161 100,161l-20 10z"/>
   <path class="fil1" d="M196 380l11 22c0,0 113,-25 201,24 44,-70 134,-217 134,-217 0,0 -147,93 -222,-22 -7,10 -12,19 -12,19 0,0 54,95 181,49 -39,64 -91,144 -91,144 0,0 -71,-41 -202,-19z"/>
  </g>
 </g>
</svg>
