<?xml version="1.0" encoding="UTF-8" standalone="no"?>
<!-- Created with Inkscape (http://www.inkscape.org/) -->

<svg
   xmlns:dc="http://purl.org/dc/elements/1.1/"
   xmlns:cc="http://creativecommons.org/ns#"
   xmlns:rdf="http://www.w3.org/1999/02/22-rdf-syntax-ns#"
   xmlns:svg="http://www.w3.org/2000/svg"
   xmlns="http://www.w3.org/2000/svg"
   xmlns:inkscape="http://www.inkscape.org/namespaces/inkscape"
   version="1.1"
   width="19.199751"
   height="19.199751"
   id="svg2"
   xml:space="preserve"><metadata
     id="metadata8"><rdf:RDF><cc:Work
         rdf:about=""><dc:format>image/svg+xml</dc:format><dc:type
           rdf:resource="http://purl.org/dc/dcmitype/StillImage" /></cc:Work></rdf:RDF></metadata><defs
     id="defs6" /><g
     transform="matrix(1.25,0,0,-1.25,0,19.19975)"
     id="g10"><path
       d="m 7.6799,14.4003 c 0.7467,0 1.465,-0.1222 2.1359,-0.3467 l 0,-2.8701 -3.5983,0 c -1.292,0 -2.3491,-1.0573 -2.3491,-2.3493 l 0,-2.3491 c 0,-1.2268 1.0035,-2.2303 2.2303,-2.2303 l 3.7171,0 0,-2.9489 C 9.1449,1.0811 8.4266,0.9592 7.6799,0.9592 c -3.7114,0 -6.7204,3.0087 -6.7204,6.7204 0,3.7117 3.009,6.7207 6.7204,6.7207 z m 3.7715,-1.1574 c 1.7799,-1.209 2.9492,-3.2494 2.9492,-5.5633 0,-2.3136 -1.1693,-4.3543 -2.9492,-5.5633 l 0,2.1385 0,1.5761 -1.6356,0 -3.6428,0 c -0.3679,0 -0.669,0.301 -0.669,0.6689 l 0,2.4237 c 0,0.3435 0.2809,0.6244 0.6245,0.6244 l 3.6873,0 0,-0.0595 1.6356,0 0,0.0595 0,1.6356 0,2.0594 z"
       inkscape:connector-curvature="0"
       id="path12"
       style="fill:#2b2b2a;fill-opacity:1;fill-rule:evenodd;stroke:none" /></g></svg>