<?xml version="1.0" encoding="UTF-8"?>
<!DOCTYPE svg PUBLIC "-//W3C//DTD SVG 1.1//EN" "http://www.w3.org/Graphics/SVG/1.1/DTD/svg11.dtd">
<!-- Creator: CorelDRAW X8 -->
<svg xmlns="http://www.w3.org/2000/svg" xml:space="preserve" width="4.9462mm" height="5.4186mm" version="1.1" style="shape-rendering:geometricPrecision; text-rendering:geometricPrecision; image-rendering:optimizeQuality; fill-rule:evenodd; clip-rule:evenodd"
viewBox="0 0 17 19"
 xmlns:xlink="http://www.w3.org/1999/xlink">
 <defs>
  <style type="text/css">
   <![CDATA[
    .fil0 {fill:#3FD794}
   ]]>
  </style>
 </defs>
 <g id="Слой_x0020_1">
  <metadata id="CorelCorpID_0Corel-Layer"/>
  <g id="_1151693760">
   <path class="fil0" d="M0 10l0 -4c0,0 0,-1 1,-2 0,0 1,0 1,0l5 -4c0,0 1,0 2,0 0,0 1,0 1,0l6 4c0,0 0,0 1,1 0,0 0,1 0,1l0 4 0 0 0 -4c0,0 0,-1 -1,-1 0,-1 0,-1 0,-1 0,0 -1,0 -1,0 0,-1 -1,-1 -1,-1l-4 -2c0,0 -1,-1 -1,-1 -1,0 -2,1 -2,1l-5 3c0,0 -1,0 -1,1 0,1 -1,1 -1,1l0 1 0 4 0 -1z"/>
   <path class="fil0" d="M0 8l0 5c0,0 0,1 1,2 0,0 1,0 1,0l5 4c0,0 1,0 2,0 0,0 1,0 1,0l6 -4c0,0 0,0 1,-1 0,-1 0,-1 0,-1l0 -4 0 0 0 4c0,0 0,1 -1,1 0,1 0,1 0,1 0,0 -1,0 -1,0 0,0 -1,1 -1,1l-4 2c0,0 -1,0 -1,0 -1,0 -2,0 -2,0l-5 -3c0,0 -1,-1 -1,-1 0,-1 -1,-1 -1,-1l0 -1 0 -4 0 0z"/>
   <path class="fil0" d="M9 4c0,0 -1,1 -2,1 0,1 0,1 0,1 -1,1 -1,2 0,2 1,0 1,0 1,0 0,0 0,0 0,1 0,0 0,0 0,0l1 1 1 -1c0,0 0,0 -1,0 0,-1 0,-1 0,-1 0,0 0,0 1,0 1,0 1,-1 0,-2 0,0 0,0 0,-1 -1,0 -1,-1 -1,-1z"/>
   <path class="fil0" d="M11 10c1,0 2,0 2,2 0,1 -1,2 -2,2 -1,0 -1,-1 -2,-1 0,0 -1,-1 -1,-1 1,-1 1,-1 1,-2 1,0 1,0 2,0zm0 0c0,0 1,1 1,2 0,0 -1,1 -1,1 -1,0 -1,0 -1,-1 0,0 -1,0 -1,0 0,-1 1,-1 1,-1 0,0 0,-1 1,-1z"/>
   <path class="fil0" d="M6 10c-1,0 -2,0 -2,2 0,1 1,2 2,2 1,0 1,-1 2,-1 0,0 0,0 0,0l-1 -1c0,0 0,0 0,0 0,1 0,1 -1,1 0,0 -1,-1 -1,-1 0,-1 1,-2 1,-2 1,0 1,1 1,1 0,0 0,0 1,0l0 0 0 1c1,0 1,0 1,0 -1,-1 -1,-1 -1,-2 -1,0 -1,0 -2,0z"/>
  </g>
 </g>
</svg>
