<?xml version="1.0" encoding="UTF-8"?>
<!DOCTYPE svg PUBLIC "-//W3C//DTD SVG 1.1//EN" "http://www.w3.org/Graphics/SVG/1.1/DTD/svg11.dtd">
<!-- Creator: CorelDRAW X8 -->
<svg xmlns="http://www.w3.org/2000/svg" xml:space="preserve" width="5.4188mm" height="5.4188mm" version="1.1" style="shape-rendering:geometricPrecision; text-rendering:geometricPrecision; image-rendering:optimizeQuality; fill-rule:evenodd; clip-rule:evenodd"
viewBox="0 0 19 19"
 xmlns:xlink="http://www.w3.org/1999/xlink">
 <defs>
  <style type="text/css">
   <![CDATA[
    .fil0 {fill:#3FD794}
   ]]>
  </style>
 </defs>
 <g id="Слой_x0020_1">
  <metadata id="CorelCorpID_0Corel-Layer"/>
  <path class="fil0" d="M10 0c5,0 9,4 9,10 0,5 -4,9 -9,9 -6,0 -10,-4 -10,-9 0,-6 4,-10 10,-10zm0 5c1,0 2,0 3,1l-5 6 0 -1 4 -5c-1,0 -1,-1 -2,-1 -3,0 -5,2 -5,5 0,2 2,4 5,4 1,0 2,-1 2,-2l2 2 0 0 1 1c-2,1 -3,2 -5,2 -5,0 -8,-3 -8,-7 0,-5 3,-8 8,-8 2,0 4,1 5,2l-1 1c-1,-2 -3,-2 -4,-2 -4,0 -7,3 -7,7 0,3 3,6 7,6 1,0 3,0 4,-1l-2 -1c0,0 -1,1 -2,1 -3,0 -5,-3 -5,-5 0,-3 2,-5 5,-5z"/>
 </g>
</svg>
