<?xml version="1.0" encoding="UTF-8" standalone="no"?>
<!-- Created with Inkscape (http://www.inkscape.org/) -->

<svg
   xmlns:dc="http://purl.org/dc/elements/1.1/"
   xmlns:cc="http://creativecommons.org/ns#"
   xmlns:rdf="http://www.w3.org/1999/02/22-rdf-syntax-ns#"
   xmlns:svg="http://www.w3.org/2000/svg"
   xmlns="http://www.w3.org/2000/svg"
   xmlns:inkscape="http://www.inkscape.org/namespaces/inkscape"
   version="1.1"
   width="19.199751"
   height="19.199751"
   id="svg2"
   xml:space="preserve"><metadata
     id="metadata8"><rdf:RDF><cc:Work
         rdf:about=""><dc:format>image/svg+xml</dc:format><dc:type
           rdf:resource="http://purl.org/dc/dcmitype/StillImage" /></cc:Work></rdf:RDF></metadata><defs
     id="defs6" /><g
     transform="matrix(1.25,0,0,-1.25,0,19.19975)"
     id="g10"><path
       d="m 7.6799,14.1503 c 1.7765,0 3.3857,-0.7161 4.555,-1.8752 l -1.1367,-1.1466 -3e-4,-2e-4 c -0.4552,0.4512 -1.2217,0.9323 -1.8368,1.144 -0.4958,0.1707 -1.0276,0.2634 -1.5812,0.2634 -2.6819,0 -4.8557,-2.1739 -4.8557,-4.8558 0,-2.6816 2.1738,-4.8557 4.8557,-4.8557 0.9181,0 1.887,0.2854 2.6623,0.7948 1.0953,0.7194 1.8822,1.8697 2.1189,3.2102 l -3.9053,0 0,1.6319 c 1.8768,0 3.6933,0.0289 5.5443,0.0289 0.0332,-0.2656 0.0502,-0.5357 0.0502,-0.8101 0,-3.5736 -2.8968,-6.4704 -6.4704,-6.4704 -3.5736,0 -6.4704,2.8968 -6.4704,6.4704 0,3.5736 2.8968,6.4704 6.4704,6.4704 z M 7.5898,10.8697 c 1.3977,0 2.5784,-0.9286 2.9593,-2.2025 l -1.5446,0 C 8.7092,9.1375 8.1862,9.4501 7.5898,9.4501 6.9914,9.4501 6.4667,9.1352 6.1719,8.6621 l -1.5429,0 c 0.3793,1.2765 1.561,2.2076 2.9608,2.2076 z M 6.2606,6.7714 C 6.5653,6.3706 7.0472,6.1118 7.5898,6.1118 c 0.445,0 0.8492,0.1743 1.1486,0.4581 l 1.6931,0 C 9.9607,5.466 8.8656,4.6925 7.5898,4.6925 c -1.3522,0 -2.5013,0.8691 -2.9197,2.0789 l 1.5905,0 z m 1.4542,5.6262 c 0.6775,0 1.3212,-0.1437 1.9032,-0.4017 C 9.4618,11.6606 9.2038,11.1118 9.0215,10.7495 8.5884,10.959 8.1023,11.0764 7.5889,11.0764 6.0171,11.0764 4.7024,9.9757 4.373,8.5031 l 2.2649,0 0,-1.5843 -2.2303,0 c 0.379,-1.4017 1.6597,-2.4333 3.1813,-2.4333 0.5451,0 1.0593,0.1324 1.512,0.3668 L 9.6704,3.4209 C 9.0748,3.1482 8.4127,2.9959 7.7148,2.9959 c -2.5963,0 -4.7007,2.1045 -4.7007,4.7007 0,2.5963 2.1044,4.701 4.7007,4.701"
       inkscape:connector-curvature="0"
       id="path12"
       style="fill:#2b2b2a;fill-opacity:1;fill-rule:evenodd;stroke:none" /></g></svg>