<?xml version="1.0" encoding="UTF-8"?>
<!DOCTYPE svg PUBLIC "-//W3C//DTD SVG 1.1//EN" "http://www.w3.org/Graphics/SVG/1.1/DTD/svg11.dtd">
<!-- Creator: CorelDRAW X8 -->
<svg xmlns="http://www.w3.org/2000/svg" xml:space="preserve" width="4.1542mm" height="5.4188mm" version="1.1" style="shape-rendering:geometricPrecision; text-rendering:geometricPrecision; image-rendering:optimizeQuality; fill-rule:evenodd; clip-rule:evenodd"
viewBox="0 0 12 15"
 xmlns:xlink="http://www.w3.org/1999/xlink">
 <defs>
  <style type="text/css">
   <![CDATA[
    .fil0 {fill:#3FD794}
   ]]>
  </style>
 </defs>
 <g id="Слой_x0020_1">
  <metadata id="CorelCorpID_0Corel-Layer"/>
  <g id="_1145241296">
   <path class="fil0" d="M6 3c0,0 0,2 -1,2 0,0 -1,-2 -1,-2 0,0 0,0 0,0 0,-1 0,-1 1,-1 0,0 1,0 1,1z"/>
   <path class="fil0" d="M6 3c0,0 0,2 0,2 1,0 2,-2 2,-2 0,0 0,0 0,0 0,-1 0,-1 -1,-1 0,0 -1,0 -1,1z"/>
   <path class="fil0" d="M3 4c1,0 2,1 2,1 0,1 -2,1 -2,0 0,0 -1,0 -1,0 0,0 0,0 0,-1 0,0 1,-1 1,0z"/>
   <path class="fil0" d="M3 6c0,0 2,0 2,0 0,0 -1,2 -2,2 0,0 0,0 0,0 -1,0 -1,0 -1,-1 0,-1 0,-1 1,-1z"/>
   <path class="fil0" d="M4 8c0,0 1,-1 1,-1 1,0 1,2 0,2 0,0 0,0 0,0 0,1 0,1 -1,0 0,0 -1,0 0,-1z"/>
   <path class="fil0" d="M6 9c0,-1 0,-2 0,-2 1,-1 2,1 2,1 0,0 0,1 0,1 0,0 0,0 -1,1 0,0 -1,0 -1,-1z"/>
   <path class="fil0" d="M8 8c0,-1 -1,-1 -1,-2 0,0 2,0 2,0 0,0 0,0 0,0 1,0 1,1 1,1 -1,1 -1,1 -2,1z"/>
   <path class="fil0" d="M9 6c-1,0 -2,0 -2,-1 0,0 1,-1 2,-1 0,0 0,0 0,0 0,0 1,0 1,0 0,1 0,2 -1,2z"/>
   <path class="fil0" d="M6 0c3,0 6,3 6,6 0,2 -1,3 -2,4 -2,2 -3,4 -4,5 0,0 0,0 0,0 0,0 0,0 0,0 -1,-1 -3,-3 -4,-5 -1,-1 -2,-3 -2,-4 0,-3 3,-6 6,-6zm0 1c3,0 5,2 5,5 0,2 -1,3 -2,4 -2,2 -3,4 -3,4 0,0 -1,-1 -3,-4 -1,-1 -2,-3 -2,-4 0,-3 2,-5 5,-5z"/>
  </g>
 </g>
</svg>
