<?xml version="1.0" encoding="UTF-8" standalone="no"?>
<!-- Created with Inkscape (http://www.inkscape.org/) -->

<svg
   xmlns:dc="http://purl.org/dc/elements/1.1/"
   xmlns:cc="http://creativecommons.org/ns#"
   xmlns:rdf="http://www.w3.org/1999/02/22-rdf-syntax-ns#"
   xmlns:svg="http://www.w3.org/2000/svg"
   xmlns="http://www.w3.org/2000/svg"
   xmlns:inkscape="http://www.inkscape.org/namespaces/inkscape"
   version="1.1"
   width="19.199751"
   height="19.199751"
   id="svg2"
   xml:space="preserve"><metadata
     id="metadata8"><rdf:RDF><cc:Work
         rdf:about=""><dc:format>image/svg+xml</dc:format><dc:type
           rdf:resource="http://purl.org/dc/dcmitype/StillImage" /></cc:Work></rdf:RDF></metadata><defs
     id="defs6" /><g
     transform="matrix(1.25,0,0,-1.25,0,19.19975)"
     id="g10"><path
       d="m 7.272,11.2107 c 1.95,0 3.5306,-1.5806 3.5306,-3.5305 0,-1.9502 -1.5806,-3.5308 -3.5306,-3.5308 -1.95,0 -3.5308,1.5806 -3.5308,3.5308 0,1.9499 1.5808,3.5305 3.5308,3.5305 z M 14.2699,7.0308 C 14.2407,7.0274 14.2177,7.0223 14.2002,7.0163 14.1829,7.0098 14.171,7.0019 14.1642,6.9917 14.1591,6.9851 14.1542,6.9724 14.1497,6.9545 14.1452,6.9361 14.1409,6.9111 14.1367,6.88 14.1361,6.863 14.1358,6.8443 14.1369,6.8238 14.1384,6.8031 14.1409,6.781 14.1446,6.7567 14.1384,6.736 14.1318,6.7181 14.1239,6.7034 l 0.0094,-0.0287 c -0.0049,-0.0388 -0.0074,-0.07 -0.0085,-0.0932 -0.0015,-0.023 -0.0015,-0.0383 -6e-4,-0.0459 0.0014,-0.0114 0.0045,-0.0193 0.0096,-0.023 0.0054,-0.0043 0.0119,-0.0057 0.0204,-0.0048 0.0074,8e-4 0.0247,0.0113 0.0513,0.0312 0.0264,0.0201 0.063,0.0501 0.1092,0.0893 0.0513,0.0425 0.0904,0.0756 0.1176,0.0983 0.0269,0.0227 0.0425,0.0354 0.0471,0.0383 0.0082,0.0133 0.0164,0.0263 0.0249,0.0391 0.0077,0.013 0.0159,0.0255 0.0238,0.0383 0.0108,0.0173 0.019,0.0326 0.0233,0.0456 0.0048,0.013 0.0065,0.0247 0.0054,0.0349 -0.002,0.0178 -0.01,0.0334 -0.0227,0.0465 -0.0136,0.0133 -0.0321,0.0238 -0.0561,0.0317 -0.0077,0.0023 -0.0219,0.0051 -0.042,0.0088 -0.0201,0.004 -0.0456,0.0068 -0.0771,0.0093 -0.0258,0.004 -0.0462,0.0069 -0.0612,0.0091 -0.0151,0.002 -0.0241,0.0029 -0.0278,0.0026 z M 14.1491,6.1517 C 14.1367,6.1503 14.1276,6.1387 14.1214,6.1172 14.1148,6.0951 14.1117,6.0633 14.1111,6.0214 14.1123,5.9834 14.1143,5.9445 14.1154,5.906 14.1171,5.8671 14.1182,5.8286 14.1197,5.7903 14.1174,5.7708 14.1163,5.7501 14.1154,5.7288 l 0.0037,-0.0113 0.0096,-0.0034 c 0.0298,0.0119 0.0624,0.0246 0.0987,0.038 0.026,0.0031 0.0411,0.0073 0.0453,0.0127 0.0043,0.0057 0.0624,0.0417 0.1741,0.108 0.0482,0.0272 0.0833,0.0516 0.1063,0.0732 0.0232,0.0215 0.0337,0.0388 0.032,0.053 -8e-4,0.0079 -0.0054,0.0158 -0.0133,0.0224 C 14.5644,6.0284 14.5531,6.035 14.5383,6.0418 14.5001,6.0605 14.4578,6.0763 14.4122,6.09 14.3666,6.1036 14.3172,6.1149 14.2634,6.124 14.2563,6.1254 14.2481,6.1268 14.2393,6.1285 14.2299,6.1302 14.22,6.1319 14.2092,6.1336 14.1917,6.1393 14.178,6.1438 14.1687,6.1475 14.1596,6.1506 14.1525,6.1523 14.1491,6.1517 z M 13.8628,5.5706 c 0.0066,0.0071 0.0151,0.0165 0.0264,0.0281 0.0111,0.0119 0.0261,0.0258 0.0442,0.0428 0.0139,0.0116 0.0238,0.0221 0.0295,0.0323 0.0057,0.0097 0.0079,0.0199 0.0068,0.0295 -0.0043,0.0357 -0.0071,0.0587 -0.0088,0.0683 -0.0014,0.0099 -0.0023,0.0173 -0.0031,0.0227 -0.0085,0.0731 -0.0133,0.1304 -0.0142,0.1715 -0.0014,0.0417 6e-4,0.068 0.0057,0.0782 l -0.0062,0.034 -0.008,0.0074 c -0.0011,0.0082 -0.0014,0.0156 -0.002,0.0221 -2e-4,0.0068 -8e-4,0.0122 -0.0014,0.0165 -0.0048,0.0419 -0.0263,0.0666 -0.0646,0.0734 -0.038,0.0068 -0.059,0.028 -0.0632,0.0629 -0.0012,0.0105 0.0076,0.025 0.0272,0.0431 0.0195,0.0181 0.0485,0.0403 0.0864,0.0672 0.0012,0.0374 0.0023,0.0791 0.0029,0.1236 0.0011,0.0445 0.0028,0.0938 0.0045,0.1479 -0.0042,0.0094 -0.0071,0.0173 -0.0093,0.0239 -0.0023,0.0059 -0.0037,0.0116 -0.0043,0.0172 -0.0031,0.0264 -0.0031,0.0511 3e-4,0.0735 0.0037,0.0229 0.0093,0.0447 0.0178,0.0654 0.0054,0.0117 0.0131,0.0241 0.0219,0.038 0.0093,0.0139 0.0207,0.0289 0.034,0.0459 0.0108,0.0131 0.019,0.0239 0.0241,0.0335 0.0048,0.0091 0.0071,0.0164 0.0065,0.0221 -8e-4,0.006 -0.0037,0.0105 -0.0093,0.0139 C 14.0012,6.9786 13.9941,6.9797 13.985,6.9786 13.9567,6.9755 13.9167,6.9616 13.864,6.9372 13.8112,6.9131 13.7713,6.8992 13.7441,6.8961 13.735,6.895 13.7285,6.8953 13.7239,6.8973 13.7194,6.899 13.7169,6.9026 13.7163,6.9077 13.7146,6.9228 13.7137,6.9361 13.714,6.948 c 3e-4,0.0113 9e-4,0.0193 0.0026,0.0244 0.0116,0.0116 0.0207,0.0221 0.0269,0.0317 0.0059,0.0102 0.0088,0.0196 0.0076,0.0289 -5e-4,0.004 0.0029,0.0091 0.0103,0.0162 0.007,0.0068 0.0192,0.0136 0.0362,0.0204 0.0675,0.0281 0.1191,0.0493 0.1545,0.0644 0.0357,0.0147 0.0559,0.0235 0.0613,0.0255 0.0411,0.0156 0.0807,0.028 0.119,0.0377 0.0383,0.0096 0.0743,0.0161 0.1074,0.0201 0.004,6e-4 0.0114,6e-4 0.023,0 0.0119,-6e-4 0.0193,0 0.023,0.002 0.0147,0.0039 0.0306,0.0085 0.0467,0.0136 0.0049,5e-4 0.0182,-3e-4 0.0409,-0.0014 0.0226,-0.0017 0.0538,-0.004 0.0943,-0.0071 0.008,0.0025 0.0171,0.0056 0.0267,0.009 0.0221,0.0026 0.0411,0.0015 0.0567,-0.0036 0.0156,-0.0051 0.028,-0.0131 0.0377,-0.0247 0.011,-6e-4 0.0215,-6e-4 0.0315,6e-4 0.0195,0.0022 0.0382,-0.0014 0.0558,-0.0102 0.0179,-0.0091 0.034,-0.0233 0.0485,-0.042 0.0127,-0.0187 0.0235,-0.0371 0.032,-0.0555 0.0082,-0.019 0.0136,-0.0383 0.0159,-0.059 0.0048,-0.04 5e-4,-0.0791 -0.0122,-0.1171 C 14.7475,6.8839 14.7257,6.8474 14.6954,6.8125 14.6917,6.8097 14.6747,6.7938 14.6446,6.7654 14.6143,6.7371 14.5704,6.6969 14.5125,6.6455 14.5063,6.6402 14.4989,6.6331 14.4907,6.6234 14.4825,6.6141 14.4726,6.6039 14.4609,6.5934 14.4028,6.5489 14.3467,6.5066 14.2934,6.4655 14.2475,6.4335 14.2132,6.4066 14.1905,6.3853 14.1676,6.3641 14.1565,6.3499 14.1574,6.3425 14.1593,6.3269 14.167,6.3145 14.1817,6.304 14.1959,6.294 14.2169,6.2858 14.2444,6.2799 14.2846,6.2708 14.3306,6.26 14.3816,6.2484 14.432,6.2368 14.4865,6.2223 14.5449,6.2042 14.5505,6.2033 14.5576,6.2011 14.5661,6.1977 14.5749,6.194 14.5843,6.19 14.5947,6.1858 14.6631,6.1693 14.7152,6.1452 14.7506,6.1135 14.7864,6.082 14.8071,6.0432 14.8124,5.997 14.8204,5.9292 14.7671,5.8578 14.6523,5.783 14.5372,5.7076 14.3614,5.6285 14.125,5.5454 14.1222,5.5341 14.1188,5.523 14.1154,5.512 14.1117,5.5003 14.1086,5.4899 14.1058,5.4797 14.1015,5.4706 14.0947,5.4629 14.0854,5.4567 14.0763,5.451 14.0649,5.4468 14.0522,5.4454 14.0377,5.4437 14.0258,5.4473 14.0162,5.457 14.0063,5.466 13.9989,5.4816 13.9932,5.5029 13.9864,5.5077 13.9816,5.5094 13.9776,5.5083 L 13.915,5.4836 c -0.0091,0.0037 -0.0173,0.0065 -0.0247,0.0094 -0.0079,0.0025 -0.0156,0.0051 -0.0235,0.0082 -0.0082,0.0034 -0.0153,0.0085 -0.0201,0.0142 -0.0054,0.0059 -0.0085,0.0127 -0.0094,0.0201 -8e-4,0.0068 0.0012,0.0128 0.0054,0.0176 0.0045,0.0045 0.0113,0.0107 0.0201,0.0175 z m -0.9686,1.0792 c 0.0131,0.0122 0.0255,0.0241 0.0375,0.0357 0.0116,0.0122 0.0277,0.019 0.0479,0.0216 0.0093,0.0011 0.0218,-0.0077 0.0374,-0.0264 0.0153,-0.0184 0.0238,-0.0326 0.0249,-0.0422 6e-4,-0.0054 0,-0.0179 -0.0011,-0.0372 C 13.0391,6.5818 13.036,6.5554 13.0317,6.522 13.0229,6.446 13.0181,6.3986 13.0184,6.3802 13.0181,6.3612 13.0167,6.3315 13.0136,6.2909 13.0119,6.281 13.0105,6.268 13.009,6.2515 c 9e-4,-0.0071 0.0026,-0.0116 0.0057,-0.0141 0.0031,-0.0029 0.0068,-0.004 0.0113,-0.0034 0.1418,0.0932 0.2152,0.142 0.2203,0.1459 0.006,0.0023 0.0119,0.0049 0.0187,0.0083 0.0062,0.0036 0.0125,0.007 0.0184,0.011 l 0.0142,0.0235 c 0.0408,0.0332 0.0828,0.0686 0.1259,0.1058 0.0269,0.0263 0.0462,0.051 0.0578,0.0751 0.0122,0.0232 0.0167,0.0462 0.0139,0.0683 C 13.4921,6.7 13.4725,6.7255 13.4365,6.7493 13.4008,6.7725 13.3489,6.7929 13.2812,6.8105 13.2231,6.8261 13.1706,6.836 13.1241,6.8409 13.0774,6.846 13.0357,6.8462 12.9983,6.8417 12.9498,6.836 12.9144,6.8233 12.892,6.8034 12.869,6.7833 12.8597,6.7567 12.8636,6.7232 12.8665,6.6977 12.8707,6.6784 12.8761,6.6654 12.8818,6.6526 12.8874,6.6472 12.8942,6.6498 z m 0.184,-0.5346 c 0.002,-0.015 0.0147,-0.034 0.0394,-0.057 0.0247,-0.0227 0.0607,-0.0505 0.1083,-0.0828 0.0309,-0.0198 0.0624,-0.0394 0.095,-0.0584 0.0325,-0.019 0.0649,-0.0379 0.0972,-0.0575 0.0142,-0.0088 0.0323,-0.021 0.055,-0.0354 0.0226,-0.0148 0.0484,-0.0318 0.0788,-0.0513 0.0212,-0.0131 0.0436,-0.0258 0.0672,-0.0383 0.0235,-0.0125 0.0484,-0.025 0.0751,-0.0377 0.0181,-0.0108 0.0385,-0.0224 0.0609,-0.0352 0.0218,-0.0127 0.0476,-0.0263 0.076,-0.0408 0.0161,-0.0074 0.0298,-0.0224 0.0411,-0.0453 0.011,-0.0233 0.0195,-0.0533 0.0258,-0.0913 L 13.8912,5.4536 13.8804,5.4465 c -0.0074,-9e-4 -0.0178,0.0011 -0.0312,0.0062 -0.013,0.0051 -0.03,0.0125 -0.0504,0.0224 -0.004,0.0017 -0.0224,0.008 -0.0547,0.0187 C 13.7117,5.5049 13.665,5.5199 13.6043,5.54 13.5711,5.5497 13.54,5.5619 13.5113,5.5757 13.483,5.5899 13.4566,5.6049 13.4323,5.6214 13.4184,5.631 13.3999,5.6418 13.3787,5.6531 13.3569,5.6642 13.3313,5.6764 13.3024,5.6889 13.2721,5.7019 13.2463,5.7144 13.2239,5.7263 13.2021,5.7382 13.1845,5.7484 13.1709,5.7569 13.1261,5.7855 13.0898,5.8068 13.062,5.8212 13.034,5.8357 13.0156,5.8425 13.0054,5.8414 12.9994,5.8297 12.9963,5.8184 12.9969,5.8071 12.9917,5.7702 12.9878,5.724 12.9835,5.6687 12.9798,5.6132 12.9759,5.5491 12.9725,5.476 12.9739,5.4626 12.9728,5.4527 12.9688,5.4459 12.9651,5.4388 12.9589,5.4349 12.9495,5.4337 12.92,5.4303 12.8971,5.4351 12.8801,5.4476 c -0.0168,0.0125 -0.027,0.0332 -0.0307,0.0621 -0.0042,0.0386 -0.0068,0.0797 -0.0068,0.1225 0,0.0433 0.0029,0.089 0.0088,0.1372 0.0015,0.0209 0.0023,0.0396 0.0023,0.0561 0,0.0164 -8e-4,0.0317 -0.0026,0.0453 -0.0039,0.0349 -0.0226,0.0632 -0.0555,0.0845 -0.0329,0.0216 -0.0502,0.0377 -0.0513,0.0482 -0.002,0.0167 -0.0014,0.0317 0.0023,0.0448 0.0034,0.013 0.0096,0.0241 0.0187,0.0326 0.0229,0.0187 0.0442,0.0368 0.0643,0.0538 0.0051,0.0037 0.0085,0.0094 0.0094,0.0165 0.0011,0.0076 8e-4,0.0178 -9e-4,0.0306 -8e-4,0.0074 -0.0017,0.0156 -0.0028,0.0247 -9e-4,0.0085 -0.002,0.0164 -0.0029,0.0243 -0.0056,0.0678 -0.0119,0.1378 -0.019,0.2109 -5e-4,0.0057 -0.0014,0.0136 -0.0028,0.025 -0.0014,0.0116 -0.004,0.0263 -0.0076,0.0445 -0.0032,0.0133 -0.0051,0.0261 -0.0057,0.0377 -6e-4,0.0119 -0.0014,0.0227 -0.0026,0.0323 -0.0065,0.0147 -0.0119,0.0275 -0.0167,0.038 -0.0048,0.0108 -0.0074,0.021 -0.0085,0.0309 -0.0011,0.0088 -0.002,0.0232 -0.0028,0.0428 -6e-4,0.0195 -0.0014,0.0334 -0.0026,0.0419 -0.0011,0.0105 -0.0042,0.025 -0.0082,0.044 -0.0042,0.0187 -0.0068,0.0329 -0.0079,0.0425 -0.0031,0.0278 0,0.0544 0.0093,0.0811 0.0097,0.0263 0.0261,0.053 0.0488,0.0805 0.0224,0.0243 0.0462,0.0433 0.0708,0.0575 0.0253,0.0142 0.0514,0.0227 0.0786,0.0258 0.0127,0.0014 0.0317,0.0028 0.0572,0.004 0.0258,0.0011 0.0459,0.0022 0.0601,0.0039 0.0099,0.0012 0.038,-0.0039 0.0839,-0.0153 0.0176,6e-4 0.0332,3e-4 0.0471,-8e-4 0.0142,-0.0011 0.0252,-0.0026 0.034,-0.0046 0.0198,-0.007 0.0354,-0.0124 0.0468,-0.0158 0.011,-0.0037 0.0187,-0.0057 0.0235,-0.006 C 13.3214,7.0285 13.3333,7.026 13.343,7.024 13.3529,7.022 13.3611,7.0194 13.3676,7.0155 13.3781,7.0121 13.3903,7.0084 13.4042,7.0036 13.4184,6.999 13.4337,6.9942 13.4515,6.9883 13.4802,6.978 13.5077,6.965 13.5337,6.9497 c 0.0261,-0.0156 0.0508,-0.0323 0.0746,-0.051 0.0275,-0.025 0.0487,-0.0491 0.0638,-0.074 0.0153,-0.0247 0.0243,-0.0499 0.0275,-0.076 8e-4,-0.0073 0.0017,-0.0181 0.0022,-0.0323 6e-4,-0.0142 0,-0.0303 -0.0011,-0.0482 8e-4,-0.0218 -0.0082,-0.047 -0.0252,-0.0751 C 13.6579,6.5656 13.6315,6.5341 13.5964,6.4993 13.5652,6.4684 13.536,6.4426 13.5085,6.4213 13.4813,6.4001 13.4555,6.3845 13.4317,6.3737 13.4223,6.3658 13.4158,6.3584 13.411,6.3516 13.4045,6.3434 13.3897,6.3306 13.3671,6.3142 13.3444,6.2977 13.3135,6.2768 13.2741,6.2512 13.2026,6.2053 13.1519,6.1747 13.1216,6.1594 13.091,6.1435 13.0765,6.1291 13.0782,6.1152 z M 12.6833,5.7662 C 12.7046,5.7308 12.7236,5.6976 12.7397,5.6665 12.7264,5.6494 12.708,5.6333 12.6845,5.6174 12.6607,5.6021 12.6332,5.5874 12.6009,5.5735 12.5921,5.5701 12.5816,5.5655 12.5694,5.5607 12.5572,5.5553 12.5439,5.5497 12.5283,5.544 12.5065,5.5397 12.4804,5.5344 12.45,5.5278 12.4197,5.521 12.3837,5.5128 12.3426,5.5026 12.289,5.449 12.2409,5.406 12.198,5.3736 12.1552,5.3419 12.119,5.3201 12.0889,5.309 L 12.0736,5.2917 C 12.0489,5.2775 12.0189,5.2645 11.9829,5.2532 11.9469,5.2415 11.9041,5.2302 11.8548,5.2189 11.8454,5.22 11.8355,5.2245 11.825,5.2322 c -0.0105,0.0074 -0.023,0.0187 -0.0368,0.0332 0.0068,0.0093 0.0147,0.0209 0.0243,0.036 0.0102,0.0144 0.0207,0.0317 0.0324,0.0515 0.0096,0.0182 0.0212,0.0329 0.0354,0.0454 0.0147,0.0119 0.0337,0.0215 0.0575,0.0289 0.0244,0.0085 0.0513,0.0193 0.0805,0.0329 0.0066,0.0065 0.0153,0.0139 0.0258,0.0218 0.0099,0.008 0.0216,0.017 0.034,0.0278 0.0165,0.0105 0.0335,0.0244 0.0508,0.0417 0.017,0.0173 0.036,0.0385 0.0558,0.0629 0.0272,0.0334 0.0485,0.0598 0.0647,0.0797 0.0161,0.0198 0.026,0.0326 0.0292,0.0374 0.0048,0.0113 0.0102,0.0218 0.0158,0.0314 0.006,0.0094 0.0131,0.0185 0.0224,0.0275 0.0082,0.0196 0.0193,0.044 0.0318,0.0734 0.0127,0.0295 0.028,0.0638 0.0453,0.1027 0.0037,0.0042 0.0077,0.0102 0.0125,0.0181 0.0051,0.0079 0.0108,0.0164 0.017,0.0258 0.0136,0.0193 0.0213,0.0471 0.0241,0.0836 0.0025,0.0363 8e-4,0.08 -0.0051,0.1307 -0.0043,0.0349 -0.0173,0.0703 -0.0397,0.106 -0.0224,0.036 -0.0547,0.0726 -0.0969,0.1108 -0.0352,0.0315 -0.0718,0.0587 -0.11,0.0825 -0.0383,0.0233 -0.076,0.0417 -0.114,0.055 C 12.0532,6.5894 12.026,6.5999 12.0002,6.6104 11.9747,6.6206 11.9514,6.6302 11.9305,6.6382 11.9245,6.5991 11.9171,6.5455 11.9086,6.4766 11.9001,6.408 11.8913,6.3247 11.882,6.2269 11.8718,6.1166 11.865,6.0276 11.8616,5.9604 11.8579,5.8929 11.8573,5.8482 11.8602,5.8252 11.8576,5.8056 11.8562,5.7866 11.8553,5.7671 L 11.8361,5.5378 C 11.8157,5.4831 11.7972,5.442 11.7811,5.4147 11.7655,5.3872 11.7519,5.3731 11.7414,5.3719 11.736,5.3714 11.7309,5.3751 11.7249,5.3836 11.7193,5.3915 11.713,5.4048 11.7065,5.4232 l 0.006,0.0667 c -0.0029,0.0039 -0.006,0.0102 -0.0091,0.0181 -0.0011,0.0499 -0.0028,0.1003 -0.0048,0.1514 -0.0026,0.0507 -0.0043,0.1015 -0.0054,0.1519 -0.0028,0.057 -0.0034,0.11 -0.0014,0.1602 0.0014,0.0501 0.0045,0.0966 0.0088,0.1394 l -0.0204,0.0564 c 0.0036,0.0148 0.0062,0.0332 0.0079,0.055 0.0014,0.0221 0.0025,0.0465 0.002,0.074 -9e-4,0.0354 -0.0017,0.0641 -0.002,0.0859 0,0.0218 8e-4,0.0371 0.0031,0.0462 0.0014,0.0099 0.0034,0.0227 0.0048,0.0383 0.0017,0.0156 0.0034,0.0343 0.0057,0.0561 0.0014,0.0085 0.0125,0.0264 0.0343,0.0527 0.0213,0.027 0.0346,0.0468 0.0403,0.0598 0.0155,0.004 0.0269,0.0088 0.034,0.0136 0.0071,0.0051 0.0102,0.0111 0.0093,0.0182 -5e-4,0.0054 -0.0054,0.0091 -0.0147,0.0119 -0.0091,0.0028 -0.0227,0.0045 -0.0403,0.0048 -0.0082,-0.0011 -0.0178,-0.0014 -0.0295,-8e-4 -0.011,5e-4 -0.0226,0.0025 -0.0345,0.0056 l -0.0984,0.0346 c -0.021,0.0065 -0.0371,0.0142 -0.0485,0.0218 -0.011,0.0083 -0.0173,0.017 -0.0184,0.0267 0.0026,0.0159 0.0045,0.0317 0.006,0.047 -0.0071,0.0145 -0.0131,0.0264 -0.0176,0.0358 -0.0048,0.0096 -0.0071,0.017 -0.0077,0.0224 -8e-4,0.007 0,0.0121 0.0031,0.0164 0.0032,0.0042 0.0074,0.0068 0.0137,0.0076 0.0218,-0.0014 0.0408,-0.0028 0.0572,-0.0039 0.0071,0.0031 0.0145,0.0065 0.0216,0.0099 0.0073,0.0037 0.0144,0.0077 0.0218,0.0113 0.0184,0.002 0.0349,0.0029 0.0496,0.0017 0.0144,-8e-4 0.0258,-0.0022 0.0337,-0.0045 0.0114,-0.0043 0.0233,-0.0082 0.0352,-0.0133 0.0119,-0.0048 0.0238,-0.0085 0.0348,-0.0119 0.0091,0.0025 0.021,0.0059 0.0358,0.0102 0.0048,5e-4 0.0087,3e-4 0.0127,-9e-4 0.0099,-0.0051 0.0216,-0.0093 0.0349,-0.013 C 11.884,6.8834 11.8993,6.8805 11.9163,6.8791 11.935,6.878 11.9509,6.8769 11.9639,6.8749 11.9772,6.8729 11.9883,6.8706 11.9959,6.8675 12.0813,6.8355 12.1567,6.8043 12.221,6.7748 12.2859,6.745 12.3398,6.7153 12.3834,6.6849 12.452,6.6382 12.5045,6.5857 12.5416,6.5279 12.5785,6.4701 12.6006,6.4077 12.6085,6.3411 12.621,6.2345 12.6028,6.1183 12.5535,5.9922 12.5042,5.8654 12.4251,5.7294 12.316,5.5837 c 0.0099,0.0054 0.0232,0.0122 0.0402,0.0195 0.0167,0.0074 0.036,0.0165 0.0578,0.027 0.0463,0.0164 0.0944,0.0334 0.1435,0.0518 0.0306,0.0131 0.0561,0.0264 0.0771,0.0397 0.0204,0.0131 0.0368,0.0281 0.0487,0.0445 z M 1.4077,3.4716 C 1.6869,2.4987 2.6855,1.7158 4.9204,2.285 4.6341,2.41 4.3594,2.5566 4.0989,2.7238 2.9511,2.7743 2.0378,3.0047 1.4077,3.4716 z M 1.3156,3.9101 C 1.8153,3.4288 2.6314,3.1045 3.704,3.0008 2.8613,3.6445 2.1977,4.5102 1.8006,5.5108 1.4709,5.1324 1.2739,4.5162 1.3156,3.9101 z M 4.9022,2.7162 C 5.1043,2.6195 5.3133,2.535 5.5281,2.463 5.8246,2.5611 6.139,2.6796 6.4735,2.8219 5.9173,2.7632 5.3926,2.7269 4.9022,2.7162 z M 0.9357,3.9348 C 0.9249,3.9489 0.9142,3.9631 0.9037,3.9776 0.6942,4.2664 0.5496,4.6108 0.4754,5.0162 0.4405,5.2061 0.1709,5.36 0.233,5.5431 0.2988,5.7368 0.5692,5.9295 0.7603,5.8567 0.9162,5.7971 0.7112,5.5247 0.7174,5.358 0.7288,5.0573 0.7821,4.7874 0.877,4.5473 0.8884,4.5187 0.9,4.4906 0.9125,4.4629 0.9646,5.2603 1.2977,5.9805 1.5296,5.8708 1.5347,5.8686 1.6104,5.8411 1.6934,5.8034 1.495,6.3927 1.3876,7.024 1.3876,7.6802 c 0,3.2496 2.6345,5.8841 5.8844,5.8841 2.9203,0 5.3433,-2.1274 5.8045,-4.9172 -0.1304,-0.0048 -0.2582,-0.0204 -0.3824,-0.0457 -0.4385,2.5986 -2.6989,4.578 -5.4221,4.578 -3.0373,0 -5.4995,-2.4622 -5.4995,-5.4992 0,-2.0072 1.0752,-3.7627 2.681,-4.7228 0.6429,-0.0156 1.3646,0.0167 2.1626,0.0924 2.1359,0.6225 4.477,2.1039 4.6326,2.8114 -0.0158,0.0689 -0.0278,0.1389 -0.036,0.2103 l -3e-4,3e-4 3e-4,0 c -0.0088,0.0751 -0.0133,0.1514 -0.0133,0.2288 0,1.0871 0.8813,1.9683 1.9684,1.9683 1.0871,0 1.9684,-0.8812 1.9684,-1.9683 0,-1.0871 -0.8813,-1.9684 -1.9684,-1.9684 -0.5783,0 -1.0982,0.2492 -1.4584,0.6463 C 10.0922,3.4146 8.3707,2.6501 6.6056,2.2209 6.8238,2.1946 7.0464,2.1807 7.272,2.1807 c 1.8298,0 3.4506,0.894 4.4504,2.2688 0.1009,-0.079 0.2086,-0.1499 0.322,-0.2117 C 10.9755,2.7584 9.2364,1.7957 7.272,1.7957 6.7116,1.7957 6.1693,1.874 5.656,2.0205 5.525,1.9967 5.3938,1.974 5.2625,1.9528 2.1209,1.4428 1.1129,2.7091 0.9357,3.9348 z M 7.272,10.387 c 1.495,0 2.7068,-1.2118 2.7068,-2.7068 0,-1.495 -1.2118,-2.7071 -2.7068,-2.7071 -1.495,0 -2.7071,1.2121 -2.7071,2.7071 0,1.495 1.2121,2.7068 2.7071,2.7068 z M 6.1243,6.4409 6.3244,6.6963 6.5775,7.0197 6.4434,7.3522 6.2912,7.7298 5.9383,7.7797 5.5621,7.833 5.3337,7.5407 5.1015,7.2442 5.2424,6.8947 5.383,6.5455 5.7555,6.493 6.1243,6.4409 z m -0.9176,1.199 0.2534,0.3238 -0.1536,0.3812 -0.1582,0.3926 0,0 C 5.1381,8.7633 5.1415,8.7936 5.1596,8.8169 l 0.2608,0.3333 0.258,0.3294 c 0.0167,0.0241 0.0462,0.0383 0.0773,0.034 l 0.419,-0.0592 0.4178,-0.0593 0,0 c 0.0029,-2e-4 0.0054,-8e-4 0.0083,-0.0017 l 0.2443,0.3124 0.258,0.3294 c 0.0167,0.0241 0.0462,0.0383 0.0773,0.034 l 0.419,-0.0592 0.419,-0.0593 0,0 C 8.0459,9.9468 8.0708,9.9286 8.0819,9.9009 L 8.24,9.5085 8.3931,9.1287 8.8104,9.0694 9.2293,9.0102 l 0,0 C 9.2571,9.0065 9.2818,8.9884 9.2931,8.9606 L 9.451,8.5683 9.6092,8.1757 l 0,0 C 9.6194,8.1499 9.6163,8.1196 9.5978,8.096 L 9.337,7.763 9.0791,7.4333 C 9.0717,7.4228 9.0618,7.414 9.0505,7.4081 l 2e-4,-6e-4 0.1582,-0.3923 0.1582,-0.3926 0,0 C 9.3773,6.5968 9.3739,6.5665 9.3557,6.5432 L 9.095,6.2099 8.837,5.8805 C 8.8203,5.8564 8.7908,5.8422 8.7599,5.8465 L 8.3407,5.9057 7.922,5.9649 l 0,0 C 7.9155,5.9658 7.9092,5.9678 7.903,5.97 L 7.6558,5.6543 7.3979,5.3249 C 7.3811,5.3008 7.3519,5.2866 7.3208,5.2909 l -0.419,0.0592 -0.419,0.0593 0,0 C 6.4551,5.4133 6.4304,5.4315 6.4191,5.4592 L 6.2612,5.8516 6.103,6.2442 l 0,0 C 6.0982,6.2561 6.0962,6.2691 6.0976,6.2819 l -0.3642,0.0513 -0.4187,0.0592 0,0 C 5.2869,6.3964 5.262,6.4145 5.2509,6.4423 l -0.1582,0.3923 -0.1581,0.3926 0,0 C 4.9243,7.253 4.9277,7.2833 4.9459,7.3066 L 5.2067,7.6399 z M 7.107,6.8012 6.7385,6.8533 6.5384,6.5979 6.2714,6.2569 6.4106,5.9117 6.5511,5.5624 6.9239,5.5097 7.2972,5.457 7.5291,5.7535 7.7613,6.05 7.6204,6.3995 7.4798,6.7484 7.107,6.8012 z M 6.5256,7.8032 6.6614,7.4665 6.8156,7.0838 7.166,7.0345 7.5393,6.9814 7.7715,7.278 8.0033,7.5745 7.8625,7.924 7.7219,8.2729 7.3494,8.3256 6.9761,8.3786 6.7442,8.0821 6.5256,7.8032 z M 8.5462,7.3568 8.1729,7.4098 7.941,7.1133 7.7088,6.8168 7.8497,6.4672 7.9903,6.1183 8.3628,6.0656 8.7361,6.0126 8.9683,6.3091 9.2004,6.6056 9.0595,6.9551 8.9186,7.3043 8.5462,7.3568 z M 8.7883,8.9099 8.4149,8.9626 8.1831,8.6664 7.9509,8.3699 8.0918,8.0201 8.2324,7.6711 8.6051,7.6184 8.9785,7.5657 9.2103,7.8619 9.4425,8.1587 9.3016,8.5082 9.161,8.8571 8.7883,8.9099 z M 5.5947,8.0609 5.9698,8.0079 6.3459,7.9546 6.5744,8.2468 6.806,8.5425 6.6713,8.8767 6.5242,9.2421 6.1526,9.2945 5.7793,9.3475 5.5471,9.051 5.3152,8.7545 5.4561,8.405 5.5947,8.0609 z M 6.7405,9.311 6.8751,8.9768 7.0226,8.6114 7.3939,8.5589 7.7672,8.5059 7.9994,8.8024 8.2315,9.0989 8.0906,9.4484 7.9498,9.7977 7.5773,9.8504 7.204,9.9031 6.9721,9.6066 6.7405,9.311 z"
       inkscape:connector-curvature="0"
       id="path12"
       style="fill:#2b2b2a;fill-opacity:1;fill-rule:evenodd;stroke:none" /></g></svg>