<?xml version="1.0" encoding="UTF-8"?>
<!DOCTYPE svg PUBLIC "-//W3C//DTD SVG 1.1//EN" "http://www.w3.org/Graphics/SVG/1.1/DTD/svg11.dtd">
<!-- Creator: CorelDRAW X8 -->
<svg xmlns="http://www.w3.org/2000/svg" xml:space="preserve" width="3.7572mm" height="5.4187mm" version="1.1" style="shape-rendering:geometricPrecision; text-rendering:geometricPrecision; image-rendering:optimizeQuality; fill-rule:evenodd; clip-rule:evenodd"
viewBox="0 0 10 15"
 xmlns:xlink="http://www.w3.org/1999/xlink">
 <defs>
  <style type="text/css">
   <![CDATA[
    .fil0 {fill:#3FD794;fill-rule:nonzero}
   ]]>
  </style>
 </defs>
 <g id="Слой_x0020_1">
  <metadata id="CorelCorpID_0Corel-Layer"/>
  <path class="fil0" d="M0 0l2 0 0 4c0,1 0,1 0,2 0,0 1,1 1,1 0,0 1,0 2,0 0,0 1,0 3,0l0 -7 2 0 0 10 0 0 0 2 0 0 0 3 -2 0 0 -3 -3 0 0 -2 3 0 0 -1c-2,0 -3,0 -4,0 -1,0 -2,0 -2,-1 -1,0 -1,-1 -2,-1 0,-1 0,-2 0,-2l0 -5z"/>
 </g>
</svg>
