<?xml version="1.0" encoding="UTF-8"?>
<!DOCTYPE svg PUBLIC "-//W3C//DTD SVG 1.1//EN" "http://www.w3.org/Graphics/SVG/1.1/DTD/svg11.dtd">
<!-- Creator: CorelDRAW X8 -->
<svg xmlns="http://www.w3.org/2000/svg" xml:space="preserve" width="4.7054mm" height="5.4186mm" version="1.1" style="shape-rendering:geometricPrecision; text-rendering:geometricPrecision; image-rendering:optimizeQuality; fill-rule:evenodd; clip-rule:evenodd"
viewBox="0 0 15 17"
 xmlns:xlink="http://www.w3.org/1999/xlink">
 <defs>
  <style type="text/css">
   <![CDATA[
    .fil0 {fill:#3FD794}
   ]]>
  </style>
 </defs>
 <g id="Слой_x0020_1">
  <metadata id="CorelCorpID_0Corel-Layer"/>
  <g id="_1140084224">
   <path class="fil0" d="M0 4l7 -4 0 3 -4 3 -3 -2zm3 2l0 5 -3 2 0 -8 3 1zm0 5l4 3 0 3 -7 -4 3 -2zm5 -11l7 4 -3 2 -4 -3 0 -3zm7 5l0 8 -3 -2 0 -5 3 -1zm0 8l-7 4 0 -3 4 -3 3 2z"/>
   <path class="fil0" d="M3 6l5 -2 4 2 0 5 -4 2 -5 -2 0 -5zm1 0l4 -2 3 2 0 5 -3 2 -4 -2 0 -5z"/>
   <rect class="fil0" x="7" y="4" width="0.37042" height="4.73061"/>
   <rect class="fil0" transform="matrix(0.34317 -0.594391 0.370204 0.213739 7.30243 8.73129)" width="0.539704" height="11.0663"/>
   <rect class="fil0" transform="matrix(0.34317 0.594391 -0.370204 0.213739 7.5112 8.43934)" width="0.539704" height="11.0663"/>
  </g>
 </g>
</svg>
