<?xml version="1.0" encoding="UTF-8"?>
<!DOCTYPE svg PUBLIC "-//W3C//DTD SVG 1.1//EN" "http://www.w3.org/Graphics/SVG/1.1/DTD/svg11.dtd">
<!-- Creator: CorelDRAW X8 -->
<svg xmlns="http://www.w3.org/2000/svg" xml:space="preserve" width="5.2702mm" height="5.4188mm" version="1.1" style="shape-rendering:geometricPrecision; text-rendering:geometricPrecision; image-rendering:optimizeQuality; fill-rule:evenodd; clip-rule:evenodd"
viewBox="0 0 19 20"
 xmlns:xlink="http://www.w3.org/1999/xlink">
 <defs>
  <style type="text/css">
   <![CDATA[
    .fil1 {fill:url(#id0)}
    .fil0 {fill:url(#id1)}
   ]]>
  </style>
  <linearGradient id="id0" gradientUnits="userSpaceOnUse" x1="9.43419" y1="14.6242" x2="9.73138" y2="14.6238">
   <stop offset="0" style="stop-opacity:1; stop-color:#3FD794"/>
   <stop offset="1" style="stop-opacity:1; stop-color:#199961"/>
  </linearGradient>
  <linearGradient id="id1" gradientUnits="userSpaceOnUse" xlink:href="#id0" x1="9.43419" y1="14.6249" x2="9.73138" y2="14.6246">
  </linearGradient>
 </defs>
 <g id="Слой_x0020_1">
  <metadata id="CorelCorpID_0Corel-Layer"/>
  <g id="_653228352">
   <path class="fil0" d="M3 3c0,0 -1,1 0,2 2,2 6,8 6,8 0,0 0,0 1,0 0,0 1,0 1,0 0,0 4,-6 5,-8 1,-1 0,-2 0,-2 0,0 0,0 2,1 2,1 1,4 1,4l-7 9c0,0 0,1 -1,2 0,0 -1,1 -1,1 0,0 0,0 0,0l0 0 0 0 0 0 0 0 0 0 0 0 0 0 0 0 0 0 0 0 0 0 0 0 0 0 0 0 0 0 0 0 0 0 0 0 0 0 0 0 0 0 0 0 0 0 0 0 0 0 0 0 0 0 0 0 0 0 0 0 0 0 0 0 0 0 0 0 0 0 0 0 0 0 0 0 0 0 0 0 0 0 0 0 0 0 0 0 0 0 0 0 0 0 0 0 0 0 0 0 0 0 0 0 0 0 0 0 0 0 0 0 0 0 0 0 0 0 0 0 0 0 0 0 0 0 0 0 0 0 0 0 0 0 0 0 0 0 0 0 0 0 0 0 0 0 -1 0 0 0 0 0 0 0 0 0 0 0 0 0 0 0 0 0 0 0 0 0 0 0 0 0 0 0 0 0 0 0 0 0 0 0 0 0 0 0 0 0 0 0 0 0 0 0 0 0 0 0 0 0 0 0 0 0 0 0 0 0 0 0 0 0 0 0 0 0 0 0 0 0 0 0 0 0 0 0 0 0 0 0 0 0 0 0 0 0 0 0 0 0 0 0 0 0 0 0 0 0 0 0c0,0 0,0 0,0 0,0 -1,-1 -1,-1 0,-1 -1,-2 -1,-2l-7 -9c0,0 -1,-3 1,-4 2,-1 2,-1 2,-1z"/>
   <path class="fil1" d="M10 0l0 0 0 0 0 0c0,0 0,0 0,0l0 0 0 0 0 0 0 0 0 0c0,0 -1,0 -1,0l0 0 0 0 0 0c0,0 0,0 0,0 -1,0 -1,1 -1,1l-2 1c0,0 -1,0 -1,1 1,2 4,5 4,5 0,0 0,1 0,1l0 0c0,0 1,0 1,0 0,0 0,0 0,0l0 0c0,0 1,-1 1,-1 0,0 2,-3 3,-5 1,-1 -1,-1 -1,-1l-2 -1c0,0 0,-1 0,-1 -1,0 -1,0 -1,0z"/>
  </g>
 </g>
</svg>
