<?xml version="1.0" encoding="UTF-8" standalone="no"?>
<!-- Generator: Adobe Illustrator 19.2.1, SVG Export Plug-In . SVG Version: 6.00 Build 0)  -->

<svg
   xmlns:dc="http://purl.org/dc/elements/1.1/"
   xmlns:cc="http://creativecommons.org/ns#"
   xmlns:rdf="http://www.w3.org/1999/02/22-rdf-syntax-ns#"
   xmlns:svg="http://www.w3.org/2000/svg"
   xmlns="http://www.w3.org/2000/svg"
   xmlns:xlink="http://www.w3.org/1999/xlink"
   xmlns:sodipodi="http://sodipodi.sourceforge.net/DTD/sodipodi-0.dtd"
   xmlns:inkscape="http://www.inkscape.org/namespaces/inkscape"
   version="1.1"
   id="Слой_10"
   x="0px"
   y="0px"
   viewBox="0 0 9319.7 15996.7"
   style="enable-background:new 0 0 9319.7 15996.7;"
   xml:space="preserve"
   sodipodi:docname="1.svg"
   inkscape:version="0.92.1 r15371"><metadata
     id="metadata29"><rdf:RDF><cc:Work
         rdf:about=""><dc:format>image/svg+xml</dc:format><dc:type
           rdf:resource="http://purl.org/dc/dcmitype/StillImage" /><dc:title>Gradient3</dc:title></cc:Work></rdf:RDF></metadata><defs
     id="defs27"><linearGradient
       inkscape:collect="always"
       xlink:href="#SVGID_2_"
       id="linearGradient4508"
       gradientUnits="userSpaceOnUse"
       gradientTransform="matrix(1.0054392,0,0,-1.0067081,-33.860063,16333.076)"
       x1="-5.4585"
       y1="8296.2109"
       x2="9349.0459"
       y2="8296.2109" /></defs><sodipodi:namedview
     pagecolor="#ffffff"
     bordercolor="#666666"
     borderopacity="1"
     objecttolerance="10"
     gridtolerance="10"
     guidetolerance="10"
     inkscape:pageopacity="0"
     inkscape:pageshadow="2"
     inkscape:window-width="1920"
     inkscape:window-height="971"
     id="namedview25"
     showgrid="false"
     inkscape:zoom="0.23604868"
     inkscape:cx="1756.4912"
     inkscape:cy="15273.321"
     inkscape:window-x="0"
     inkscape:window-y="31"
     inkscape:window-maximized="1"
     inkscape:current-layer="Слой_10" /><style
     type="text/css"
     id="style2">
	
		.st0{opacity:0.53;fill:url(#SVGID_1_);stroke:url(#SVGID_2_);stroke-width:22.977;stroke-miterlimit:10;enable-background:new    ;}
</style><title
     id="title4">Gradient3</title><linearGradient
     id="SVGID_1_"
     gradientUnits="userSpaceOnUse"
     x1="6.0300002"
     y1="8296.2109"
     x2="9337.5576"
     y2="8296.2109"
     gradientTransform="matrix(1.0054392,0,0,-1.0067081,-33.860063,16333.076)"
     xlink:href="#SVGID_2_"><stop
       offset="0"
       style="stop-color:#706F6F"
       id="stop6" /><stop
       offset="0.74"
       style="stop-color:#5FB4B8"
       id="stop8" /><stop
       offset="1"
       style="stop-color:#6ABFB1"
       id="stop10" /></linearGradient><linearGradient
     id="SVGID_2_"
     gradientUnits="userSpaceOnUse"
     x1="-5.4585"
     y1="8296.2109"
     x2="9349.0459"
     y2="8296.2109"
     gradientTransform="matrix(1 0 0 -1 0 16301.3994)"><stop
       offset="0"
       style="stop-color:#5796BD"
       id="stop13" /><stop
       offset="0.42"
       style="stop-color:#57ACBD"
       id="stop15" /><stop
       offset="0.7"
       style="stop-color:#4CB7C6"
       id="stop17" /><stop
       offset="1"
       style="stop-color:#48BBCA"
       id="stop19" /></linearGradient><rect
     x="-27.827425"
     y="-64.586586"
     class="st0"
     width="9382.2559"
     height="16091.725"
     id="rect22"
     style="opacity:0.52999998;fill:url(#SVGID_1_);fill-opacity:1.0;stroke:url(#linearGradient4508);stroke-width:23.11655045;stroke-miterlimit:10;enable-background:new" /></svg>