<?xml version="1.0" encoding="utf-8"?>
<!-- Generator: Adobe Illustrator 18.0.0, SVG Export Plug-In . SVG Version: 6.00 Build 0)  -->
<!DOCTYPE svg PUBLIC "-//W3C//DTD SVG 1.1//EN" "http://www.w3.org/Graphics/SVG/1.1/DTD/svg11.dtd">
<svg version="1.1" id="Слой_1" xmlns="http://www.w3.org/2000/svg" xmlns:xlink="http://www.w3.org/1999/xlink" x="0px" y="0px"
	 viewBox="0 0 172.7 171.6" enable-background="new 0 0 172.7 171.6" xml:space="preserve">
<g id="XMLID_2_">
	<path fill="none" stroke="#51B2BF" stroke-width="6.4982" stroke-miterlimit="10" d="M11.2,76.6c1.7,1.3,3.6,2.3,5.6,3.1
		c0.7,2,1.8,3.9,3.1,5.6L11.2,76.6z"/>
	<path fill="none" stroke="#51B2BF" stroke-width="6.4982" stroke-miterlimit="10" d="M79.7,16.8c4.6,12.7-1.6,31.6-16.5,46.4
		S29.5,84.3,16.8,79.7c-2-0.7-3.9-1.8-5.6-3.1c-0.6-0.5-1.2-1-1.8-1.6C-2.2,63.4,3.1,39.4,21.2,21.2S63.4-2.2,75,9.4
		c0.4,0.4,0.8,0.9,1.2,1.3C77.7,12.5,78.9,14.6,79.7,16.8z"/>
	<path fill="none" stroke="#51B2BF" stroke-width="6.4982" stroke-miterlimit="10" d="M76.3,10.7l9.5,9.5c-1.8-1.5-3.8-2.6-6-3.4
		C78.9,14.6,77.7,12.5,76.3,10.7z"/>
	<path fill="none" stroke="#51B2BF" stroke-width="6.4982" stroke-miterlimit="10" d="M85.7,20.2c0.5,0.4,0.9,0.8,1.3,1.2
		C98.6,33,93.3,57.1,75.2,75.2S33,98.6,21.4,87.1c-0.6-0.6-1.1-1.1-1.6-1.8c-1.3-1.7-2.3-3.6-3.1-5.6c12.7,4.6,31.6-1.6,46.4-16.5
		s21.1-33.7,16.5-46.4C81.9,17.6,83.9,18.7,85.7,20.2z"/>
	<line fill="none" stroke="#51B2BF" stroke-width="6.4982" stroke-miterlimit="10" x1="85.7" y1="20.2" x2="87.7" y2="22.2"/>
	<line fill="none" stroke="#51B2BF" stroke-width="6.4982" stroke-miterlimit="10" x1="73.8" y1="8.2" x2="76.3" y2="10.7"/>
	<line fill="none" stroke="#51B2BF" stroke-width="6.4982" stroke-miterlimit="10" x1="19.8" y1="85.3" x2="22.3" y2="87.7"/>
	<line fill="none" stroke="#51B2BF" stroke-width="6.4982" stroke-miterlimit="10" x1="8.3" y1="73.7" x2="11.2" y2="76.6"/>
</g>
<g id="XMLID_3_">
	<path fill="none" stroke="#51B2BF" stroke-width="6.4982" stroke-miterlimit="10" d="M18,139.7c0.5,1.6,1.2,3.1,2.2,4.5
		c-0.4,1.6-0.6,3.3-0.6,4.9L18,139.7z"/>
	<path fill="none" stroke="#51B2BF" stroke-width="6.4982" stroke-miterlimit="10" d="M88.4,132.4c-2.8,10.2-15.2,19.4-31.3,22.1
		c-16.1,2.8-30.9-1.7-36.9-10.3c-1-1.4-1.7-2.9-2.2-4.5c-0.2-0.6-0.3-1.2-0.4-1.8c-2.2-12.6,12-25.5,31.7-28.9s37.4,4,39.5,16.6
		c0.1,0.5,0.1,0.9,0.2,1.4C89.1,128.8,88.9,130.6,88.4,132.4z"/>
	<path fill="none" stroke="#51B2BF" stroke-width="6.4982" stroke-miterlimit="10" d="M88.9,127l1.8,10.3c-0.5-1.7-1.3-3.4-2.3-4.9
		C88.9,130.6,89.1,128.8,88.9,127z"/>
	<path fill="none" stroke="#51B2BF" stroke-width="6.4982" stroke-miterlimit="10" d="M90.7,137.2c0.1,0.5,0.2,0.9,0.3,1.4
		c2.2,12.6-12,25.5-31.7,28.9s-37.4-4-39.5-16.6c-0.1-0.6-0.2-1.2-0.2-1.8c-0.1-1.7,0.1-3.3,0.6-4.9c6,8.6,20.8,13.1,36.9,10.3
		c16.1-2.8,28.5-12,31.3-22.1C89.5,133.9,90.2,135.5,90.7,137.2z"/>
	<line fill="none" stroke="#51B2BF" stroke-width="6.4982" stroke-miterlimit="10" x1="90.7" y1="137.2" x2="91.1" y2="139.4"/>
	<line fill="none" stroke="#51B2BF" stroke-width="6.4982" stroke-miterlimit="10" x1="88.5" y1="124.3" x2="88.9" y2="127"/>
	<line fill="none" stroke="#51B2BF" stroke-width="6.4982" stroke-miterlimit="10" x1="19.6" y1="149.1" x2="20.1" y2="151.7"/>
	<line fill="none" stroke="#51B2BF" stroke-width="6.4982" stroke-miterlimit="10" x1="17.5" y1="136.6" x2="18" y2="139.7"/>
</g>
<g id="XMLID_4_">
	<path fill="none" stroke="#51B2BF" stroke-width="6.4982" stroke-miterlimit="10" d="M113.5,66.7c-1.3,1.2-2.4,2.7-3.2,4.3
		c-1.8,0.4-3.5,1-5,1.9L113.5,66.7z"/>
	<path fill="none" stroke="#51B2BF" stroke-width="6.4982" stroke-miterlimit="10" d="M160.9,128.7l-9,6.8c1.4-1.3,2.6-2.9,3.6-4.6
		C157.4,130.4,159.2,129.7,160.9,128.7z"/>
	<path fill="none" stroke="#51B2BF" stroke-width="6.4982" stroke-miterlimit="10" d="M151.9,135.5c-0.4,0.3-0.8,0.7-1.2,1
		c-11,8.3-30.5,1.1-43.5-16.2s-14.6-38-3.6-46.3c0.5-0.4,1.1-0.8,1.7-1.1c1.6-0.9,3.2-1.5,5-1.9c-5.3,10.1-2.3,26.5,8.3,40.7
		s25.7,21.5,36.8,19.2C154.5,132.6,153.3,134.2,151.9,135.5z"/>
	<path fill="none" stroke="#51B2BF" stroke-width="6.4982" stroke-miterlimit="10" d="M155.4,130.8c-11.1,2.4-26.1-5-36.8-19.2
		S105,81.1,110.3,71c0.9-1.6,1.9-3.1,3.2-4.3c0.5-0.5,1-0.9,1.5-1.3c11-8.3,30.5-1.1,43.5,16.2s14.6,38,3.6,46.3
		c-0.4,0.3-0.8,0.6-1.3,0.9C159.2,129.7,157.4,130.4,155.4,130.8z"/>
	<line fill="none" stroke="#51B2BF" stroke-width="6.4982" stroke-miterlimit="10" x1="151.9" y1="135.5" x2="149.9" y2="136.9"/>
	<line fill="none" stroke="#51B2BF" stroke-width="6.4982" stroke-miterlimit="10" x1="163.2" y1="126.9" x2="160.9" y2="128.7"/>
	<line fill="none" stroke="#51B2BF" stroke-width="6.4982" stroke-miterlimit="10" x1="105.3" y1="72.9" x2="103" y2="74.6"/>
	<line fill="none" stroke="#51B2BF" stroke-width="6.4982" stroke-miterlimit="10" x1="116.3" y1="64.6" x2="113.5" y2="66.7"/>
</g>
</svg>
