<?xml version="1.0" encoding="utf-8"?>
<!-- Generator: Adobe Illustrator 18.0.0, SVG Export Plug-In . SVG Version: 6.00 Build 0)  -->
<!DOCTYPE svg PUBLIC "-//W3C//DTD SVG 1.1//EN" "http://www.w3.org/Graphics/SVG/1.1/DTD/svg11.dtd">
<svg version="1.1" id="Слой_1" xmlns="http://www.w3.org/2000/svg" xmlns:xlink="http://www.w3.org/1999/xlink" x="0px" y="0px"
	 viewBox="0 0 166.8 172.9" enable-background="new 0 0 166.8 172.9" xml:space="preserve">
<g>
	<polygon fill="none" stroke="#51B2BF" stroke-width="6.4982" stroke-miterlimit="10" points="138.4,29 3.2,29 3.2,126.8 29,126.8 
		29,165.2 68.2,126.8 138.4,126.8 	"/>
	<polyline fill="none" stroke="#51B2BF" stroke-width="6.4982" stroke-miterlimit="10" points="29.5,29 29.5,3.2 163.6,3.2 
		163.6,105.2 140.5,105.2 	"/>
</g>
<line fill="none" stroke="#51B2BF" stroke-width="5" stroke-miterlimit="10" x1="33.9" y1="61" x2="121.1" y2="61"/>
<line fill="none" stroke="#51B2BF" stroke-width="5" stroke-miterlimit="10" x1="33.9" y1="76.9" x2="121.1" y2="76.9"/>
<line fill="none" stroke="#51B2BF" stroke-width="5" stroke-miterlimit="10" x1="65.8" y1="92.9" x2="121.1" y2="92.9"/>
</svg>
