<svg id="Слой_1" data-name="Слой 1" xmlns="http://www.w3.org/2000/svg" xmlns:xlink="http://www.w3.org/1999/xlink" viewBox="0 0 10791.79 2572">
  <defs>
    <style>
      .cls-1 {
        opacity: 0.79;
        isolation: isolate;
        fill: url(#Безымянный_градиент);
      }
    </style>
    <linearGradient id="Безымянный_градиент" data-name="Безымянный градиент" x1="14939.31" y1="-885.3" x2="14987.48" y2="-3644.84" gradientTransform="translate(20359.29 -979.07) rotate(180)" gradientUnits="userSpaceOnUse">
      <stop offset="0.05" stop-color="#003a9f"/>
      <stop offset="0.14" stop-color="#0c4aa3"/>
      <stop offset="0.3" stop-color="#2b72ae"/>
      <stop offset="0.5" stop-color="#57acbd"/>
      <stop offset="0.76" stop-color="#48bbca"/>
    </linearGradient>
  </defs>
  <title>BG dark-lite</title>
  <rect class="cls-1" width="10791.79" height="2572"/>
</svg>
