<svg id="Слой_1" data-name="Слой 1" xmlns="http://www.w3.org/2000/svg" xmlns:xlink="http://www.w3.org/1999/xlink" viewBox="0 0 2489.45 1953.6">
  <defs>
    <style>
      .cls-1 {
        opacity: 0.79;
        fill: url(#Безымянный_градиент_20);
      }
    </style>
    <linearGradient id="Безымянный_градиент_20" data-name="Безымянный градиент 20" x1="-154.04" y1="12737.46" x2="-119.2" y2="14733.91" gradientTransform="matrix(1, 0, 0, -1, 1381.34, 14712.48)" gradientUnits="userSpaceOnUse">
      <stop offset="0.05" stop-color="#003a9f"/>
      <stop offset="0.14" stop-color="#0c4aa3"/>
      <stop offset="0.3" stop-color="#2b72ae"/>
      <stop offset="0.5" stop-color="#57acbd"/>
      <stop offset="0.76" stop-color="#48bbca"/>
    </linearGradient>
  </defs>
  <title>BG lite-dark</title>
  <rect class="cls-1" width="2489.45" height="1953.6"/>
</svg>
